…
head(colheita,30)
```

```
## # A tibble: 30 × 6
##    dia        id_partilha cultivo     variedade    quantidade tipo_cultivo
##    <date>           <dbl> <chr>       <chr>             <dbl> <chr>       
##  1 2020-02-01           1 batata_doce branca             34   tuberculo   
##  2 2020-02-01           1 abacate     <NA>               20   fruta       
##  3 2020-02-01           1 mamao       formosa            14.5 fruta       
##  4 2020-02-01           1 abobora     mini_moranga        6   legume      
##  5 2020-02-01           1 rucula      <NA>                5.5 hortalica   
##  6 2020-02-01           1 almeirao    branco              5   hortalica   
##  7 2020-02-01           1 cebolinha   <NA>                3.5 ervas       
##  8 2020-02-01           1 salsinha    <NA>                1.4 ervas       
##  9 2020-02-08           2 batata_doce branca             25   tuberculo   
## 10 2020-02-08           2 abacate     bolinha            17   fruta       
## # ℹ 20 more rows
```
…
colheita_outliers <- colheita_filtrada %>%
  group_by(cultivo) %>%
  mutate(
    Q1 = quantile(quantidade, 0.25, na.rm = TRUE),
    Q3 = quantile(quantidade, 0.75, na.rm = TRUE),
    IQR = Q3 - Q1,
    outlier = quantidade < (Q1 - 1.5 * IQR) | quantidade > (Q3 + 1.5 * IQR)
  )
colheita_outliers
```

```
## # A tibble: 492 × 11
## # Groups:   cultivo [10]
##    dia        id_partilha cultivo   variedade quantidade tipo_cultivo mes       
##    <date>           <dbl> <chr>     <chr>          <dbl> <chr>        <date>    
##  1 2023-01-06         153 mandioca  branca          8    tuberculo    2023-01-01
##  2 2023-01-06         153 batata_d… branca          7.08 tuberculo    2023-01-01
##  3 2023-01-06         153 abobora   bege_red…       5.57 legume       2023-01-01
##  4 2023-01-06         153 batata_d… roxa            0.35 tuberculo    2023-01-01
##  5 2023-01-06         153 batata_d… cenoura         0.1  tuberculo    2023-01-01
##  6 2023-01-13         154 banana    prata           8.84 fruta        2023-01-01
##  7 2023-01-13         154 mandioca  branca          8.45 tuberculo    2023-01-01
##  8 2023-01-13         154 batata_d… branca          5.59 tuberculo    2023-01-01
##  9 2023-01-13         154 abobora   bege_red…       6.86 legume       2023-01-01
## 10 2023-01-13         154 abobora   mini_mor…       0.81 legume       2023-01-01
## # ℹ 482 more rows
## # ℹ 4 more variables: Q1 <dbl>, Q3 <dbl>, IQR <dbl>, outlier <lgl>
```
…
faturamento_mensal
```

```
## # A tibble: 65 × 2
##    mes        faturamento
##    <date>           <dbl>
##  1 2020-02-01        4320
##  2 2020-03-01        5220
##  3 2020-04-01        5040
##  4 2020-05-01        4500
##  5 2020-06-01        5580
##  6 2020-07-01        5760
##  7 2020-08-01        5760
##  8 2020-09-01        5580
##  9 2020-10-01        5940
## 10 2020-11-01        6480
## # ℹ 55 more rows
```
…
